…
<img src="{{< blogdown/postref >}}index_files/figure-html/unnamed-chunk-5-1.png" width="672" />

tidyr::uncount()

Alright, I’ve buried this for long enough. Time to get to the real reason I set out to write this! Remember how count() takes a variable and counts up the number of cases belonging to each group within the variable?

ikea_counts <- ikea %>%
  count(category, other_colors) 

ikea_counts

## # A tibble: 34 x 3
##    category                   other_colors     n
##    <chr>                      <chr>        <int>
##  1 Bar furniture              No              42
##  2 Bar furniture              Yes              5
##  3 Beds                       No             115
##  4 Beds                       Yes             93
##  5 Bookcases & shelving units No             319
##  6 Bookcases & shelving units Yes            229
##  7 Cabinets & cupboards       No             105
##  8 Cabinets & cupboards       Yes            187
##  9 Café furniture             No              21
## 10 Café furniture             Yes              5
## # … with 24 more rows
…
Now let’s see it in action, using the ikea_counts table that I saved in the previous section. Pretend that this table is all we had: the category, whether or not furniture items within that category were other_colors, and the frequency of each combination.

But what if we wanted the raw data back, where single rows corresponded to single observations?!

ikea_raw <- ikea_counts %>%
  uncount(weights = n)

ikea_raw

## # A tibble: 3,694 x 2
##    category      other_colors
##    <chr>         <chr>       
##  1 Bar furniture No          
##  2 Bar furniture No          
##  3 Bar furniture No          
##  4 Bar furniture No          
##  5 Bar furniture No          
##  6 Bar furniture No          
##  7 Bar furniture No          
##  8 Bar furniture No          
##  9 Bar furniture No          
## 10 Bar furniture No          
## # … with 3,684 more rows
…
