…
critic <- read_tsv("https://raw.githubusercontent.com/rfordatascience/tidytuesday/master/data/2020/2020-05-05/critic.tsv")
user_reviews <- read_tsv("https://raw.githubusercontent.com/rfordatascience/tidytuesday/master/data/2020/2020-05-05/user_reviews.tsv")
items <- read_csv("https://raw.githubusercontent.com/rfordatascience/tidytuesday/master/data/2020/2020-05-05/items.csv")
villagers <- read_csv("https://raw.githubusercontent.com/rfordatascience/tidytuesday/master/data/2020/2020-05-05/villagers.csv")

These datasets contain a ton of information for any fan of Animal Crossing, ranging from characteristics of every item appearing in New Horizons to user reviews of the game (focusing on the latest edition rather than the entire franchise).

My goal is, quite simply, to defeat Tom Nook. But let’s rephrase this into a question that makes slightly more sense in the context of the data. Because Nook operates the village store and charges exorbitant prices for basically everything, how can we quickly put Nook out of business? We might have a good shot if we stop buying Nook’s most highly-priced items, so let’s find which items sold from Nook businesses sell for the most.

Using the items dataset, let’s first check the source of each item in the game1:

items %>%
  count(sources, sort = TRUE)

## # A tibble: 126 x 2
##    sources                              n
##    <chr>                            <int>
##  1 NA                                3663
##  2 Nook's Cranny                      329
##  3 Able Sisters                       133
##  4 Underground (dig spot)              77
##  5 Nook Shopping                       49
##  6 crossbreeding flowers               30
##  7 Find on ground at mystery island    30
##  8 Saharah                             27
##  9 Find on ground                      23
## 10 Nook Miles System                   15
## # … with 116 more rows
…
